1431867603,42141.3750347222,0.82,81.5,143,812.547706721189,146.258587209814,0,1,
1431867903,42141.3785069444,0.85,81.45,144.4,819.104405361721,122.865660804258,0,1,
1431868203,42141.3819791667,0.76,81.45,144.4,825.382193058193,198.091726333966,0,1,
1431868503,42141.3854513889,0.76,81.45,144.4,831.394724128797,199.534733790911,0,1,
1431868803,42141.3889236111,0.77,81.45,144.4,837.154669004437,192.545573871021,0,1,
1431869103,42141.3923958333,0.79,81.45,144.4,842.67379866841,176.961497720366,0,1,
1431869403,42141.3958680556,0.8,81.45,144.4,847.963060499406,169.592612099881,0,1,
1431869703,42141.3993402778,0.81,81.45,144.4,853.032646467042,162.076202828738,0,1,
1431870003,42141.4028125,0.78,81.65,138.8,857.892054516907,188.736251993719,0,1,
1431870303,42141.4062847222,0.72,81.74,136.28,862.550143978031,241.514040313849,0,1,
1431870603,42141.4097569444,0.72,81.59,140.48,867.015185588199,242.764251964696,0,1,
1431870903,42141.4132291667,0.72,81.66,138.52,871.294906760025,243.962573892807,0,1,
1431871203,42141.4167013889,0.73,81.65,138.8,875.396532580197,236.357063796653,0,1,
1431871503,42141.4201736111,0.78,81.6,140.2,879.326823016153,193.451901063554,0,1,
1431871803,42141.4236458333,0.8,81.74,136.28,883.092106700773,176.618421340155,0,1,
1431872103,42141.4271180556,0.76,81.74,136.28,886.698311660377,212.80759479849,0,1,
1431872403,42141.4305902778,0.78,81.74,136.28,890.150993306475,195.833218527424,1.92750723893381,1,
1431872703,42141.4340625,0.79,81.74,136.28,893.455359942515,187.625625587928,4.28935358470513,1,
1431873002,42141.4375231482,0.81,81.74,136.28,896.605992703157,170.3551386136,6.08370732655313,1,
1431873302,42141.4409953704,0.82,81.74,136.28,899.628535740915,161.933136433365,7.84962030186967,1,
1431873603,42141.4444791667,0.83,81.74,136.28,902.525921274143,153.429406616604,9.38089572859657,1,
1431873903,42141.4479513889,0.81,81.74,136.28,905.282942741732,172.003759120929,12.6633796290416,1,
1431874203,42141.4514236111,0.75,81.74,136.28,907.913232484453,226.978308121113,19.509820971646,1,
1431874503,42141.4548958333,0.75,81.74,136.28,910.420340981655,227.605085245414,22.3351566352796,1,
1431874802,42141.4583564815,0.76,81.69,137.68,912.799836428522,219.071960742845,24.1213527373363,1,
1431875103,42141.4618402778,0.8,81.57,141.04,915.078127044653,183.015625408931,22.3270955740726,1,
1431875403,42141.4653125,0.81,81.57,141.04,917.234853153792,174.27462209922,23.2956317687665,1,
1431875703,42141.4687847222,0.82,81.46,144.12,919.280517259955,165.470493106792,24.0214169332935,1,
1431876003,42141.4722569444,0.77,81.5,143,921.217684042329,211.880067329736,33.1561320213143,1,
1431876303,42141.4757291667,0.79,81.5,143,923.048751251431,193.8402377628,32.4898572237554,1,
1431876603,42141.4792013889,0.81,81.42,145.24,924.775957915065,175.707432003862,31.3714258785596,1,
1431876903,42141.4826736111,0.82,81.42,145.24,926.4013918732,166.752250537176,31.5622335425856,1,
1431877203,42141.4861458333,0.83,81.42,145.24,927.926996684401,157.747589436348,31.5186672489219,1,
1431877503,42141.4896180556,0.85,81.42,145.24,929.354577958127,139.403186693719,29.2918422353546,1,
1431877803,42141.4930902778,0.74,81.42,145.24,930.685809143145,241.978310377218,53.2902956003096,1,
1431878103,42141.4965625,0.64,81.42,145.24,931.922236814184,335.492005253106,77.2009924637674,1,
1431878402,42141.5000231482,0.65,81.45,144.4,933.061628966674,326.571570138336,78.2929970028024,1,
1431878703,42141.5035069444,0.69,81.07,155.04,934.116262021354,289.57604122662,72.1643349884971,1,
1431879003,42141.5069791667,0.71,81.07,155.04,935.076359528439,271.172144263247,70.0726893725811,1,
1431879303,42141.5104513889,0.73,81.07,155.04,935.946660994795,252.705598468595,67.5656689846227,1,
1431879603,42141.5139236111,0.75,80.37,174.64,936.728142456535,234.182035614134,64.6552950244637,1,
1431879903,42141.5173958333,0.85,80.04,183.88,937.421675846727,140.613251377009,40.013596958718,1,
1431880203,42141.5208680556,0.86,80.17,180.24,938.028031506898,131.323924410966,38.4503433448916,1,
1431880503,42141.5243402778,0.86,80.17,180.24,938.547880376614,131.396703252726,39.5190725550493,1,
1431880803,42141.5278125,0.87,80.17,180.24,938.981795872894,122.067633463476,37.6548641518461,1,
1431881103,42141.5312847222,0.88,80.17,180.24,939.33025548081,112.719630657697,35.6112984462446,1,
1431881402,42141.5347453704,0.85,80.17,180.24,939.592905074754,140.938935761213,45.5363128347378,1,
1431881703,42141.5382291667,0.83,80.36,174.92,939.772244881281,159.761281629818,52.7269335484762,1,
1431882003,42141.5417013889,0.83,81.12,153.64,939.866260405191,159.777264268882,53.7944473687392,1,
1431882303,42141.5451736111,0.85,80.2,179.4,939.875792805501,140.981368920825,48.3647292138741,1,
1431882603,42141.5486458333,0.86,80.15,180.8,939.80085424832,131.572119594765,45.9388675454864,1,
1431882903,42141.5521180556,0.87,79.51,198.72,939.641364927575,122.153377440585,43.360642954251,1,
1431883203,42141.5555902778,0.87,79.71,193.12,939.397152857592,122.121629871487,44.0249473313872,1,
1431883503,42141.5590625,0.87,79.52,198.44,939.067953420678,122.078833944688,44.6499429757218,1,
1431883803,42141.5625347222,0.77,78.94,214.68,938.653408664091,215.890283992741,80.0314556673867,1,
1431884103,42141.5660069444,0.78,78.89,216.08,938.153066339902,206.393674594778,77.4741876317691,1,
1431884403,42141.5694791667,0.79,78.58,224.76,937.566378676217,196.888939522006,74.7674940763294,1,
1431884702,42141.5729398148,0.8,78.54,225.88,936.895091759214,187.379018351843,71.9179079887668,1,
1431885003,42141.5764236111,0.81,78.48,227.56,936.13128929978,177.864944966958,68.9412071202857,1,
1431885303,42141.5798958333,0.8,78.4,229.8,935.281299410265,187.056259882053,73.1552074072206,1,
1431885603,42141.5833680556,0.84,78.76,219.72,934.34178331354,149.494685330166,58.9410474047577,1,
1431885902,42141.5868287037,0.84,78.67,222.24,933.315272407402,149.330443585184,59.3049728056929,1,
1431886202,42141.5903009259,0.86,78.98,213.56,932.193740657921,130.507123692109,52.1658569027005,1,
1431886503,42141.5937847222,0.87,78.91,215.52,930.974988669803,121.026748527074,48.6523038646735,1,
1431886803,42141.5972569444,0.87,78.86,216.92,929.665718510136,120.856543406318,48.8214742556324,1,
1431887103,42141.6007291667,0.88,78.77,219.44,928.26052392133,111.39126287056,45.1826801312662,1,
1431887403,42141.6042013889,0.89,78.71,221.12,926.757766462252,101.943354310848,41.4882054636698,1,
1431887703,42141.6076736111,0.77,78.07,239.04,925.155677121555,212.785805737958,86.8201662672937,1,
1431888003,42141.6111458333,0.76,78.14,237.08,923.452350681687,221.628564163605,90.5910490758616,1,
1431888303,42141.6146180556,0.76,78.1,238.2,921.645739550338,221.194977492081,90.5080461288212,1,
1431888603,42141.6180902778,0.76,78.04,239.88,919.733647029971,220.736075287193,90.3460566923502,1,
1431888903,42141.6215625,0.75,77.99,241.28,917.713719977441,229.42842999436,93.8596395877864,1,
1431889203,42141.6250347222,0.75,78.68,221.96,915.583440798121,228.89586019953,93.5269538885809,1,
1431889503,42141.6285069444,0.82,78.37,230.64,913.340118731943,164.40122137175,67.0411684801578,1,
1431889803,42141.6319791667,0.83,78.32,232.04,910.980880360226,154.866749661238,62.9798074124779,1,
1431890103,42141.6354513889,0.84,78.27,233.44,908.502659274606,145.360425483937,58.9064298667537,1,
1431890403,42141.6389236111,0.85,78.3,232.6,905.902184813921,135.885327722088,54.8310335462955,1,
1431890703,42141.6423958333,0.85,78.89,216.08,903.175969817237,135.476395472586,54.3895416660358,1,
1431891002,42141.6458564815,0.89,78.59,224.48,900.330035524268,99.0363039076695,39.5284339796213,1,
1431891303,42141.6493402778,0.9,78.54,225.88,897.331205708649,89.7331205708649,35.5766396241732,1,
1431891603,42141.6528125,0.75,78.33,231.76,894.204473416381,223.551118354095,87.97133574013,1,
1431891903,42141.6562847222,0.76,78.28,233.16,890.935601019698,213.824544244727,83.4476195299681,1,
1431892203,42141.6597569444,0.77,78.23,234.56,887.51979259436,204.129552296703,78.9381800473046,1,
1431892502,42141.6632175926,0.77,78.19,235.68,883.964086322942,203.311739854277,77.8410070375451,1,
1431892803,42141.6667013889,0.78,78.5,227,880.226575054725,193.649846512039,73.3353779710124,1,
1431893103,42141.6701736111,0.77,78.48,227.56,876.337895098563,201.55771587267,75.4340301072562,1,
1431893403,42141.6736458333,0.74,78.46,228.12,872.279685429739,226.792718211732,83.8037543133643,1,
1431893703,42141.6771180556,0.75,78.4,229.8,868.045314643737,217.011328660934,79.0981006624319,1,
1431894003,42141.6805902778,0.76,78.36,230.92,863.627696780999,207.27064722744,74.4457733828996,1,
1431894302,42141.6840509259,0.78,78.02,240.44,859.034942492789,188.987687348414,66.823969506239,1,
1431894603,42141.6875347222,0.79,77.75,248,854.211882962012,179.384495422022,62.3693316091008,1,
1431894903,42141.6910069444,0.79,77.68,249.96,849.196898629943,178.331348712288,60.9038230271234,1,
1431895203,42141.6944791667,0.66,78.14,237.08,843.964998100951,286.948099354323,96.1502645191559,1,
1431895503,42141.6979513889,0.46,78.91,215.52,838.506200808433,452.793348436554,148.680749651328,1,
1431895803,42141.7014236111,0.46,78.85,217.2,832.809790312958,449.717286768997,144.528816705751,1,
1431896103,42141.7048958333,0.46,78.8,218.6,826.864248349712,446.506694108844,140.258162872405,1,
1431896403,42141.7083680556,0.47,78.74,220.28,820.657181505204,434.948306197758,133.357587965961,1,
1431896702,42141.7118287037,0.5,80,185,814.197318294374,407.098659147187,121.663002504022,1,
1431897003,42141.7153125,0.71,80.03,184.16,807.404024762725,234.14716718119,68.0882856533046,1,
1431897303,42141.7187847222,0.68,80.41,173.52,800.327989668446,256.104956693903,72.3509358309947,1,
1431897603,42141.7222569444,0.69,80.41,173.52,792.930324022392,245.808400446942,67.3437378920364,1,
1431897903,42141.7257291667,0.71,80.41,173.52,785.192827132901,227.705919868541,60.3846365878068,1,
1431898203,42141.7292013889,0.72,80.41,173.52,777.095765048556,217.586814213596,55.738078051219,1,
1431898503,42141.7326736111,0.73,80.41,173.52,768.617709986496,207.526781696354,51.2396524630911,1,
1431898803,42141.7361458333,0.74,80.41,173.52,759.735359656592,197.531193510714,46.8969988052154,1,
1431899103,42141.7396180556,0.65,80.51,170.72,750.42333365466,262.648166779131,59.8043641319285,1,
1431899403,42141.7430902778,0.65,80.47,171.84,740.653943823464,259.228880338212,56.4488350192716,1,
1431899703,42141.7465625,0.65,80.42,173.24,730.396935003046,255.638927251066,53.070058636171,1,
1431900003,42141.7500347222,0.65,80.4,173.8,719.619192168688,251.866717259041,49.6745170006976,1,
1431900303,42141.7535069444,0.67,80.49,171.28,708.284409650667,233.73385518472,43.6251954939085,1,
1431900603,42141.7569791667,0.66,80.26,177.72,696.352717680906,236.759924011508,41.6367778442717,1,
1431900903,42141.7604513889,0.66,80.23,178.56,683.780261424297,232.485288884261,38.3318399003009,1,
1431901203,42141.7639236111,0.64,80.2,179.4,670.518727612013,241.386741940325,37.1019630810726,1,
1431901503,42141.7673958333,0.65,80.2,179.4,656.5148147697,229.780185169395,32.7070458301584,1,
1431901803,42141.7708680556,0.66,80.2,179.4,641.709644203576,218.181279029216,28.5371332690746,1,
1431902103,42141.7743402778,0.67,80.2,179.4,626.038112170095,206.592577016131,24.5997406404507,1,
1431902403,42141.7778125,0.68,80.2,179.4,609.42818921967,195.017020550294,20.9020568266047,1,
1431902703,42141.7812847222,0.58,80.25,178,591.800182051615,248.556076461679,23.6431859527694,1,
1431903003,42141.7847569444,0.59,80.4,173.8,573.065990127595,234.957055952314,19.4788342640737,1,
1431903303,42141.7882291667,0.58,80.4,173.8,553.128416705306,232.313935016229,16.3854474260677,1,
1431903603,42141.7917013889,0.58,80.67,166.24,531.880640433569,223.389868982099,12.959084350927,1,
1431903903,42141.7951736111,0.6,80.67,166.24,509.20603049277,203.682412197108,9.23669005638311,1,
1431904203,42141.7986458333,0.63,80.67,166.24,484.978616633341,179.442088154336,5.84080053933023,1,
1431904503,42141.8021180556,0.64,80.78,163.16,459.064738706682,165.263305934406,3.24263319190428,1,
1431904803,42141.8055902778,0.66,80.58,168.76,431.326756086738,146.651097069491,0.963251337501253,1,
1431905102,42141.8090509259,0.53,80.29,176.88,401.732669935193,188.814354869541,0,1,
1431905403,42141.8125347222,0.55,80.29,176.88,369.857456634399,166.43585548548,0,1,
1431905703,42141.8160069444,0.56,80.29,176.88,335.930137465785,147.809260484945,0,1,
1431906003,42141.8194791667,0.57,80.29,176.88,299.849864345121,128.935441668402,0,1,
1431906303,42141.8229513889,0.58,80.29,176.88,261.764457374015,109.941072097086,0,1,
1431906603,42141.8264236111,0.61,80.29,176.88,222.075533628806,86.6094581152343,0,1,
1431906903,42141.8298958333,0.6,80.29,176.88,181.601139280515,72.6404557122058,0,1,
1431907203,42141.8333680556,0.61,80.29,176.88,141.789189645897,55.2977839618998,0,1,
1431907503,42141.8368402778,0.63,80.3,176.6,104.899925286105,38.8129723558587,0,1,
1431907803,42141.8403125,0.67,80.06,183.32,73.8742830617582,24.3785134103802,0,1,
1431908103,42141.8437847222,0.68,80.06,183.32,51.3574322742399,16.4343783277568,0,1,
1431908703,42141.8507291667,0.52,80.06,183.32,-1,-1,-1,1,
1431909005,42141.854224537,0.51,79.99,185.28,-1,-1,-1,1,
1431909303,42141.8576736111,0.52,79.99,185.28,-1,-1,-1,1,
1431909603,42141.8611458333,0.52,79.99,185.28,-1,-1,-1,1,
1431909902,42141.8646064815,0.52,79.99,185.28,-1,-1,-1,1,
1431910203,42141.8680902778,0.53,79.99,185.28,-1,-1,-1,1,
1431910503,42141.8715625,0.53,79.99,185.28,-1,-1,-1,1,
1431910803,42141.8750347222,0.28,79.99,185.28,-1,-1,-1,1,
1431911103,42141.8785069444,0.38,79.99,185.28,-1,-1,-1,1,
1431911403,42141.8819791667,0.4,79.99,185.28,-1,-1,-1,1,
1431911703,42141.8854513889,0.42,79.81,190.32,-1,-1,-1,1,
1431912003,42141.8889236111,0.44,80.06,183.32,-1,-1,-1,1,
1431912303,42141.8923958333,0.46,80.06,183.32,-1,-1,-1,1,
1431912603,42141.8958680556,0.52,80.06,183.32,-1,-1,-1,1,
1431912903,42141.8993402778,0.54,80.06,183.32,-1,-1,-1,1,
1431913203,42141.9028125,0.56,80.06,183.32,-1,-1,-1,1,
1431913503,42141.9062847222,0.58,80.06,183.32,-1,-1,-1,1,
1431913803,42141.9097569444,0.59,80.06,183.32,-1,-1,-1,1,
1431914103,42141.9132291667,0.61,80.06,183.32,-1,-1,-1,1,
1431914403,42141.9167013889,0.36,80.06,183.32,-1,-1,-1,1,
1431914703,42141.9201736111,0.36,80.06,183.32,-1,-1,-1,1,
1431915002,42141.9236342593,0.38,80.06,183.32,-1,-1,-1,1,
1431915303,42141.9271180556,0.41,80.06,183.32,-1,-1,-1,1,
1431915603,42141.9305902778,0.43,80.06,183.32,-1,-1,-1,1,
1431915903,42141.9340625,0.45,80.05,183.6,-1,-1,-1,1,
1431916203,42141.9375347222,0.44,80.05,183.6,-1,-1,-1,1,
1431916503,42141.9410069444,0.36,80.05,183.6,-1,-1,-1,1,
1431916803,42141.9444791667,0.39,80.05,183.6,-1,-1,-1,1,
1431917103,42141.9479513889,0.41,80.05,183.6,-1,-1,-1,1,
1431917403,42141.9514236111,0.43,80.05,183.6,-1,-1,-1,1,
1431917702,42141.9548842593,0.45,80.05,183.6,-1,-1,-1,1,
1431954003,42142.3750347222,0.66,84.9,47.7999999999997,813.42514296677,276.564548608702,0,1,
1431954303,42142.3785069444,0.66,84.9,47.7999999999997,819.946624747204,278.781852414049,0,1,
1431954603,42142.3819791667,0.63,84.88,48.3600000000001,826.191434051109,305.69083059891,0,1,
1431954903,42142.3854513889,0.63,84.88,48.3600000000001,832.173056742623,307.90403099477,0,1,
1431955203,42142.3889236111,0.53,84.55,57.5999999999999,837.904010427644,393.814884900993,0,1,
1431955503,42142.3923958333,0.53,84.55,57.5999999999999,843.395927230502,396.396085798336,0,1,
1431955803,42142.3958680556,0.53,84.55,57.5999999999999,848.659628173488,398.87002524154,0,1,
1431956103,42142.3993402778,0.54,84.48,59.5599999999999,853.705190082377,392.704387437893,0,1,
1431956402,42142.4028009259,0.52,84.37,62.6399999999999,858.526220009001,412.09258560432,0,1,
1431956703,42142.4062847222,0.4,84.3,64.5999999999999,863.178838749206,517.907303249524,0,1,
1431957003,42142.4097569444,0.38,84.3,64.5999999999999,867.623871739728,537.926800478631,0,1,
1431957303,42142.4132291667,0.38,84.1,70.2000000000003,871.884751768119,540.568546096234,0,1,
1431957603,42142.4167013889,0.37,84.45,60.4000000000001,875.968630149969,551.86023699448,0,1,
1431957903,42142.4201736111,0.38,84.39,62.0799999999999,879.882199132277,545.526963462012,0,1,
1431958203,42142.4236458333,0.41,84.61,55.9200000000001,883.631725119176,521.342717820314,0,1,
1431958503,42142.4271180556,0.42,84.49,59.2800000000002,887.223078900735,514.589385762427,0,1,
1431958803,42142.4305902778,0.41,84.63,55.3600000000001,890.661763198194,525.490440286934,3.55334764278269,1,
1431959103,42142.4340625,0.41,84.57,57.04,893.952937770831,527.43223328479,10.4240583850082,1,
1431959403,42142.4375347222,0.42,84.51,58.7199999999998,897.101442342672,520.31883655875,16.9835320058294,1,
1431959703,42142.4410069444,0.43,84.45,60.4000000000001,900.111817545984,513.063736001211,23.2860882044539,1,
1431960003,42142.4444791667,0.43,84.39,62.0799999999999,902.988324093574,514.703344733337,29.8501589904092,1,
1431960303,42142.4479513889,0.44,84.33,63.7600000000002,905.734960306009,507.211577771365,35.7382417025014,1,
1431960603,42142.4514236111,0.44,84.29,64.8799999999997,908.355478194317,508.679067788818,42.1066434692216,1,
1431960903,42142.4548958333,0.18,84.11,69.9200000000001,910.853398185849,746.899786512396,70.9089242626654,0.986053599417161,0
1431961203,42142.4583680556,0.18,84.28,65.1599999999999,913.232022647259,748.850258570753,80.0806328341179,0.813679883561545,
1431961503,42142.4618402778,0.2,84.3,64.5999999999999,915.494448287826,732.395558630261,86.9881281439732,0.742630073532345,
1431961803,42142.4653125,0.24,84.26,65.7199999999998,917.643577547801,697.409118936329,90.9657721792106,0.722469544594484,
1431962103,42142.4687847222,0.26,84.2,67.4000000000001,919.682129068259,680.564775510512,96.5843925198803,0.697835315225769,
1431962403,42142.4722569444,0.42,84.53,58.1599999999999,921.612647290572,534.535335428532,81.9009562532849,0.710126018799288,
1431962703,42142.4757291667,0.65,83.86,76.9200000000001,923.437511290265,323.203128951593,53.1124269832963,1,1
1431963003,42142.4792013889,0.66,84.05,71.5999999999999,925.158942878206,314.55404057859,55.1256032011617,1,
1431963303,42142.4826736111,0.66,83.99,73.2800000000002,926.779014040638,315.104864773817,58.5999281946658,1,
1431963603,42142.4861458333,0.65,83.93,74.96,928.299653759872,324.904878815955,63.8389547725834,1,
1431963903,42142.4896180556,0.65,83.87,76.6399999999999,929.722654269006,325.402928994152,67.2905188323568,1,
1431964203,42142.4930902778,0.64,83.81,78.3199999999997,931.049676770333,335.17788363732,72.6945998266795,1,
1431964503,42142.4965625,0.53,83.72,80.8400000000001,932.282256658808,438.17266062964,99.3587423706595,0.813617383545629,0
1431964803,42142.5000347222,0.41,83.68,81.96,933.421808285715,550.718866888571,130.193748861562,0.629523312115008,
1431965103,42142.5035069444,0.43,83.62,83.6399999999999,934.469629282721,532.647688691151,130.940049916466,0.638765603444925,
1431965403,42142.5069791667,0.39,84.48,59.5599999999999,935.426904478677,570.610411731993,145.515755869165,0.409302756558891,
1431965703,42142.5104513889,0.4,84.42,61.2399999999998,936.294709426866,561.77682565612,148.292096735514,0.412968737701673,
1431966003,42142.5139236111,0.4,84.37,62.6399999999999,937.074013569976,562.244408141985,153.313116556078,0.40857560923098,
1431966303,42142.5173958333,0.47,84.05,71.5999999999999,937.765683048961,497.01581201595,139.733967536591,0.512402254528774,
1431966603,42142.5208680556,0.54,83.95,74.4000000000001,938.370483185198,431.650422265191,124.903156781368,0.595661486204314,
1431966903,42142.5243402778,0.55,83.85,77.2000000000003,938.889080644094,422.500086289842,125.619575005752,0.614553902100571,
1431967203,42142.5278125,0.56,83.78,79.1599999999999,939.322045291747,413.301699928369,126.069320246707,0.627908517671787,
1431967503,42142.5312847222,0.57,83.72,80.8400000000001,939.6698517659,404.058036259337,126.257761983209,0.640277466748944,
1431967803,42142.5347569444,0.58,83.66,82.52,939.932880765748,394.771809921614,126.19059023945,0.653931484458675,
1431968102,42142.5382175926,0.59,83.6,84.2000000000003,940.110965050054,385.445495670522,125.8650352019,0.668970535502059,
1431968403,42142.5417013889,0.63,83.65,82.7999999999997,940.205665334116,347.876096173623,115.915174498333,0.714315449710086,
1431968702,42142.545162037,0.64,83.6,84.2000000000003,940.215826840557,338.477697662601,114.931632128686,0.732609451727995,
1431969003,42142.5486458333,0.69,83.6,84.2000000000003,940.141598373405,291.443895495756,100.74197491579,0.835798584159015,
1431969302,42142.5521064815,0.69,83.46,88.1200000000003,939.983888196593,291.395005340944,102.412459626868,0.860442179799794,
1431969603,42142.5555902778,0.69,83.43,88.96,939.740415690023,291.319528863907,104.001462764663,0.855372584530861,
1431969902,42142.5590509259,0.69,83.74,80.2800000000002,939.414155541346,291.218388217817,105.486707087616,0.761043758180076,
1431970203,42142.5625347222,0.59,83.78,79.1599999999999,939.000386844456,384.990158606227,141.366630230012,0.559962417376731,
1431970503,42142.5660069444,0.52,84.2,67.4000000000001,938.502359259489,450.481132444555,167.515021030936,0.402351977662665,
1431970803,42142.5694791667,0.51,84.14,69.0799999999999,937.91829689292,459.579965477531,172.90682547622,0.399521533113223,
1431971103,42142.5729513889,0.51,84.07,71.04,937.247560246317,459.251304520695,174.654711042874,0.406745398253593,
1431971403,42142.5764236111,0.51,84.01,72.7199999999998,936.489411757988,458.879811761414,176.247315873528,0.412602028232772,
1431971703,42142.5798958333,0.51,83.95,74.4000000000001,935.643013733775,458.46507672955,177.683500861159,0.418722051509645,
1431972003,42142.5833680556,0.5,83.69,81.6800000000003,934.707425965142,467.353712982571,182.614537410092,0.447280929319302,
1431972303,42142.5868402778,0.4,83.77,79.4400000000001,933.681603016534,560.208961809921,220.509372816494,0.360256795370369,
1431972603,42142.5903125,0.42,83.57,85.04,932.564391174043,540.887346880945,214.296916613525,0.396832587905899,
1431972903,42142.5937847222,0.43,83.78,79.1599999999999,931.354525025802,530.872079264707,211.534524371064,0.374217874057954,
1431973203,42142.5972569444,0.45,83.82,78.04,930.050623671297,511.527843019213,204.83199530386,0.380995165741713,
1431973502,42142.6007175926,0.46,84.21,67.1200000000003,928.656011765788,501.474246353526,201.63584485445,0.332877321730422,
1431973803,42142.6042013889,0.47,84.21,67.1200000000003,927.154588662871,491.391931991321,198.248885398232,0.338564324662775,
1431974103,42142.6076736111,0.47,84.16,68.52,925.559075803184,490.546310175688,198.420171539111,0.345327793381602,
1431974403,42142.6111458333,0.37,85.21,39.1200000000003,923.862758683711,582.033537970738,235.854307683578,0.165865107083326,
1431974703,42142.6146180556,0.38,85.22,38.8400000000001,922.063607005401,571.679436343348,231.903189885578,0.167483681527468,
1431975003,42142.6180902778,0.38,85.22,38.8400000000001,920.159442786176,570.498854527429,231.492252987617,0.167780992662756,
1431975303,42142.6215625,0.39,85.22,38.8400000000001,918.147933120165,560.0702392033,227.154386147309,0.170985032068949,
1431975603,42142.6250347222,0.4,85.22,38.8400000000001,916.026582281765,549.615949369059,222.640387420763,0.174451726615968,
1431975903,42142.6285069444,0.42,85.22,38.8400000000001,913.792723133002,529.999779417141,214.266550130491,0.181269544762568,
1431976203,42142.6319791667,0.33,85.42,33.2399999999998,911.443507764137,610.667150201971,246.197598588581,0.135013502124149,
1431976503,42142.6354513889,0.36,85.14,41.0799999999999,908.975897310281,581.74457427858,233.709553954315,0.175773729849445,
1431976803,42142.6389236111,0.39,85.19,39.6800000000003,906.386650851407,552.895857019358,221.163681334042,0.179414629746863,
1431977103,42142.6423958333,0.43,85.12,41.6399999999999,903.672313345448,515.093218606905,204.993766693648,0.203128127609015,
1431977403,42142.6458680556,0.45,85.12,41.6399999999999,900.829202467497,495.456061357123,196.018996118635,0.212428391250399,
1431977703,42142.6493402778,0.47,85.11,41.9200000000001,897.853394265856,475.862298960904,187.008559468483,0.224160862578404,
1431978003,42142.6528125,0.48,85.31,36.3199999999997,894.740707539744,465.265167920667,181.472688768287,0.200140308971643,
1431978303,42142.6562847222,0.45,85.29,36.8799999999997,891.486686768605,490.317677722733,189.651298270287,0.194462154155354,
1431978603,42142.6597569444,0.45,85.29,36.8799999999997,888.086583487287,488.447620918008,187.194709518091,0.197014114848344,
1431978903,42142.6632291667,0.45,85.29,36.8799999999997,884.535335923356,486.494434757846,184.574802816472,0.199810588646114,
1431979203,42142.6667013889,0.44,85.29,36.8799999999997,880.827546729148,493.263426168323,185.099403177474,0.199244294508281,
1431979503,42142.6701736111,0.47,85.38,34.3600000000001,876.957458586253,464.787453050714,172.351307212432,0.199360251777201,
1431979803,42142.6736458333,0.59,85,45,872.918927475627,357.896760265007,131.021737220692,0.343454459958827,
1431980103,42142.6771180556,0.6,85.85,21.2000000000003,868.705393345585,347.482157338234,125.464946198178,0.16897149875244,
1431980403,42142.6805902778,0.61,85.64,27.0799999999999,864.309847873221,337.080840670556,119.920505151496,0.225816260244981,
1431980703,42142.6840625,0.62,85.64,27.0799999999999,859.724799015724,326.695423625975,114.398915316606,0.236715531131169,
1431981003,42142.6875347222,0.63,85.65,26.7999999999997,854.942231957321,316.328625824209,108.910568315652,0.246073456547635,
1431981303,42142.6910069444,0.63,85.65,26.7999999999997,849.953566049059,314.482819438152,106.339780215548,0.252022337695986,
1431981603,42142.6944791667,0.64,85.65,26.7999999999997,844.749607224808,304.109858600931,100.876666230698,0.265670952474877,
1431981903,42142.6979513889,0.43,85.65,26.7999999999997,839.320495416358,478.412682387324,155.487549139588,0.172361067804472,
1431982203,42142.7014236111,0.42,85.65,26.7999999999997,833.655646264323,483.520274833307,153.775240557272,0.174280332145007,
1431982503,42142.7048958333,0.41,85.65,26.7999999999997,827.743686485165,488.368775026247,151.780659403192,0.1765705861694,
1431982803,42142.7083680556,0.4,85.65,26.7999999999997,821.572382062554,492.943429237532,149.502773321651,0.179260888641445,
1431983103,42142.7118402778,0.46,85.62,27.6399999999999,815.128558323977,440.169421494947,130.079122770797,0.212486057802698,
1431983403,42142.7153125,0.52,85.75,24,808.398010886549,388.031045225543,111.558508960471,0.215133746619938,
1431983703,42142.7187847222,0.54,85.75,24,801.365406234553,368.628086867894,102.930073843245,0.23316800526686,
1431984003,42142.7222569444,0.62,85.21,39.1200000000003,794.014170573348,301.725384817872,81.6776328259375,0.47895609417781,
1431984303,42142.7257291667,0.63,85.21,39.1200000000003,786.326365340967,290.940755176158,76.2074224674552,0.513335823904906,
1431984603,42142.7292013889,0.63,85.21,39.1200000000003,778.282547612451,287.964542616607,72.833928263743,0.537112317467496,
1431984903,42142.7326736111,0.64,85.21,39.1200000000003,769.861613287245,277.150180783408,67.5367421581741,0.579240258708061,
1431985203,42142.7361458333,0.65,85.21,39.1200000000003,761.040620722746,266.364217252961,62.3844282868881,0.627079562548826,
1431985503,42142.7396180556,0.6,85.21,39.1200000000003,751.794592072334,300.717836828934,67.512490699286,0.579448330150469,
1431985803,42142.7430902778,0.67,85.3,36.5999999999999,742.096289320709,244.891775475834,52.5486475569139,0.696497468566808,
1431986103,42142.7465625,0.67,85.3,36.5999999999999,731.91596154393,241.532267309497,49.3778466293276,0.741223088863127,
1431986403,42142.7500347222,0.67,85.3,36.5999999999999,721.221059507597,238.002949637507,46.1915020474983,0.792353536422446,
1431986703,42142.7535069444,0.68,85.3,36.5999999999999,709.975913416504,227.192292293281,41.6932260962289,0.877840441407108,
1431987003,42142.7569791667,0.64,85.3,36.5999999999999,698.141369179056,251.33089290446,43.4168250267387,0.842991167075424,
1431987303,42142.7604513889,0.65,85.31,36.3199999999997,685.67437844442,239.986032455547,38.8254742184107,0.935468290630101,
1431987603,42142.7639236111,0.67,85.31,36.3199999999997,672.527537588926,221.934087404346,33.4286081739726,1,1
1431987903,42142.7673958333,0.78,85.31,36.3199999999997,658.648571616467,144.902685755623,20.1818156776984,1,
1431988203,42142.7708680556,0.78,85.31,36.3199999999997,643.979759951532,141.675547189337,18.0991560789379,1,
1431988503,42142.7743402778,0.78,85.31,36.3199999999997,628.457304083424,138.260606898353,16.0446611351054,1,
1431988803,42142.7778125,0.79,85.31,36.3199999999997,612.010642098738,128.522234840735,13.388326989294,1,
1431989103,42142.7812847222,0.79,85.31,36.3199999999997,594.561723663038,124.857961969238,11.5032542965139,1,
1431989403,42142.7847569444,0.79,85.31,36.3199999999997,576.024274525502,120.965097650355,9.66880512068199,1,
1431989702,42142.7882175926,0.93,85.31,36.3199999999997,556.370921231779,38.9459644862245,2.63344666099233,1,
1431990003,42142.7917013889,0.94,85,45,535.293556932933,32.117613415976,1.76886405050774,1,
1431990303,42142.7951736111,0.95,85,45,512.881262520531,25.6440631260265,1.08809360445818,1,
1431990603,42142.7986458333,0.97,85.01,44.7199999999998,488.942488139008,14.6682746441703,0.434924207856023,1,
1431990902,42142.8021064815,0.97,85.01,44.7199999999998,463.43378001158,13.9030134003474,0.233348676047401,1,
1431991203,42142.8055902778,0.9,85.01,44.7199999999998,435.954112388345,43.5954112388345,0.161613225110919,1,
1431991503,42142.8090625,0.85,85.01,44.7199999999998,406.633664747429,60.9950497121144,0,1,
